{
  "$schema": "https://json.schemastore.org/nest-cli",
  "collection": "@nestjs/schematics",
  "sourceRoot": "./",
  "compilerOptions": {
    "deleteOutDir": true,
    "assets": [
      "proto/*.proto"
    ],
    "watchAssets": true
  }
}
